{
    "alt-speed-down": 100,
    "alt-speed-enabled": true,
    "alt-speed-time-begin": 660,
    "alt-speed-time-day": 127,
    "alt-speed-time-enabled": true,
    "alt-speed-time-end": 300,
    "alt-speed-up": 20,
    "bind-address-ipv4": "0.0.0.0",
    "bind-address-ipv6": "::",
    "blocklist-enabled": false,
    "blocklist-url": "http://www.example.com/blocklist",
    "cache-size-mb": 4,
    "dht-enabled": true,
    "download-dir": "/downloads/complete",
    "download-queue-enabled": true,
    "download-queue-size": 5,
    "encryption": 1,
    "idle-seeding-limit": 300,
    "idle-seeding-limit-enabled": true,
    "incomplete-dir": "/downloads/incomplete",
    "incomplete-dir-enabled": true,
    "lpd-enabled": false,
    "message-level": 1,
    "peer-congestion-algorithm": "",
    "peer-id-ttl-hours": 6,
    "peer-limit-global": 200,
    "peer-limit-per-torrent": 50,
    "peer-port": 51413,
    "peer-port-random-high": 65535,
    "peer-port-random-low": 49152,
    "peer-port-random-on-start": false,
    "peer-socket-tos": "default",
    "pex-enabled": true,
    "port-forwarding-enabled": true,
    "preallocation": 1,
    "prefetch-enabled": true,
    "queue-stalled-enabled": true,
    "queue-stalled-minutes": 30,
    "ratio-limit": 1.1000,
    "ratio-limit-enabled": true,
    "rename-partial-files": true,
    "rpc-authentication-required": true,
    "rpc-bind-address": "0.0.0.0",
    "rpc-enabled": true,
    "rpc-host-whitelist": "",
    "rpc-host-whitelist-enabled": true,
    "rpc-password": "{b2af9852b6998eba9ffc2e8b696e56df0516b50ciSrxCPcR",
    "rpc-port": 9091,
    "rpc-url": "/transmission/",
    "rpc-username": "admin",
    "rpc-whitelist": "*.*.*.*",
    "rpc-whitelist-enabled": true,
    "scrape-paused-torrents-enabled": true,
    "script-torrent-done-enabled": false,
    "script-torrent-done-filename": "",
    "seed-queue-enabled": true,
    "seed-queue-size": 5,
    "speed-limit-down": 100,
    "speed-limit-down-enabled": false,
    "speed-limit-up": 200,
    "speed-limit-up-enabled": true,
    "start-added-torrents": true,
    "trash-original-torrent-files": true,
    "umask": 2,
    "upload-slots-per-torrent": 14,
    "utp-enabled": true,
    "watch-dir": "/to_download",
    "watch-dir-enabled": false
}
